12/09/2013 18:35,3.6731
12/09/2013 18:36,3.6731
12/09/2013 18:37,3.6731
12/09/2013 18:38,3.6731
12/09/2013 18:40,3.6731
12/09/2013 18:41,3.6731
12/09/2013 18:42,3.6731
12/09/2013 18:43,3.6731
12/09/2013 18:44,3.6731
12/09/2013 18:46,3.6731
12/09/2013 18:47,3.6731
12/09/2013 18:48,3.6731
12/09/2013 18:50,3.6731
12/09/2013 18:51,3.6731
12/09/2013 18:52,3.6731
12/09/2013 18:53,3.6731
12/09/2013 18:55,3.6731
12/09/2013 18:56,3.6731
12/09/2013 18:57,3.6731
12/09/2013 18:59,3.6731
12/09/2013 19:00,3.6731
12/09/2013 19:01,3.6731
12/09/2013 19:03,3.6731
12/09/2013 19:04,3.6731
12/09/2013 19:05,3.6731
12/09/2013 19:07,3.6731
12/09/2013 19:08,3.6731
12/09/2013 19:10,3.6731
12/12/2013 03:18,3.6731
