12/09/2013 18:34,77.66
12/09/2013 18:35,77.66
12/09/2013 18:36,77.66
12/09/2013 18:38,77.66
12/09/2013 18:39,77.66
12/09/2013 18:40,77.66
12/09/2013 18:41,77.66
12/09/2013 18:42,77.66
12/09/2013 18:44,77.66
12/09/2013 18:45,77.66
12/09/2013 18:46,77.66
12/09/2013 18:47,77.66
12/09/2013 18:49,77.66
12/09/2013 18:50,77.66
12/09/2013 18:51,77.66
12/09/2013 18:52,77.66
12/09/2013 18:54,77.66
12/09/2013 18:55,77.66
12/09/2013 18:57,77.66
12/09/2013 18:58,77.66
12/09/2013 18:59,77.66
12/09/2013 19:00,77.66
12/09/2013 19:02,77.66
12/09/2013 19:03,77.66
12/09/2013 19:04,77.66
12/09/2013 19:06,77.66
12/09/2013 19:07,77.66
12/09/2013 19:09,77.66
12/12/2013 03:17,77.67
