12/09/2013 18:33,1.0651
12/09/2013 18:35,1.0651
12/09/2013 18:36,1.0651
12/09/2013 18:37,1.065
12/09/2013 18:39,1.0651
12/09/2013 18:40,1.0651
12/09/2013 18:41,1.0652
12/09/2013 18:42,1.0651
12/09/2013 18:43,1.0651
12/09/2013 18:45,1.0651
12/09/2013 18:46,1.0652
12/09/2013 18:47,1.0651
12/09/2013 18:48,1.0652
12/09/2013 18:50,1.0652
12/09/2013 18:51,1.0652
12/09/2013 18:52,1.0653
12/09/2013 18:54,1.0652
12/09/2013 18:55,1.0652
12/09/2013 18:56,1.0652
12/09/2013 18:58,1.0652
12/09/2013 18:59,1.0651
12/09/2013 19:00,1.0651
12/09/2013 19:02,1.0651
12/09/2013 19:03,1.0653
12/09/2013 19:04,1.0651
12/09/2013 19:05,1.0651
12/09/2013 19:07,1.0651
12/09/2013 19:08,1.0651
12/09/2013 19:10,1.0651
12/10/2013 18:59,1.0631
12/12/2013 00:32,1.0606
12/12/2013 00:33,1.0606
12/12/2013 03:16,1.0592
