12/09/2013 18:33,6.0732
12/09/2013 18:35,6.0732
12/09/2013 18:36,6.0732
12/09/2013 18:37,6.0732
12/09/2013 18:39,6.0732
12/09/2013 18:40,6.0732
12/09/2013 18:41,6.0732
12/09/2013 18:42,6.0731
12/09/2013 18:43,6.0731
12/09/2013 18:45,6.0754
12/09/2013 18:46,6.0754
12/09/2013 18:47,6.0754
12/09/2013 18:48,6.0754
12/09/2013 18:50,6.0625
12/09/2013 18:51,6.0732
12/09/2013 18:52,6.0732
12/09/2013 18:54,6.0732
12/09/2013 18:55,6.0732
12/09/2013 18:56,6.0732
12/09/2013 18:58,6.0731
12/09/2013 18:59,6.0728
12/09/2013 19:00,6.0728
12/09/2013 19:02,6.0725
12/09/2013 19:03,6.0728
12/09/2013 19:04,6.0728
12/09/2013 19:06,6.0725
12/09/2013 19:07,6.0725
12/09/2013 19:08,6.0725
12/09/2013 19:10,6.0728
12/10/2013 18:59,6.074
12/12/2013 00:32,6.0771
12/12/2013 03:16,6.0794
