12/09/2013 18:34,1933.70
12/09/2013 18:35,1933.70
12/09/2013 18:36,1933.70
12/09/2013 18:38,1933.70
12/09/2013 18:39,1933.70
12/09/2013 18:40,1933.70
12/09/2013 18:41,1933.70
12/09/2013 18:42,1933.70
12/09/2013 18:44,1933.70
12/09/2013 18:45,1933.70
12/09/2013 18:46,1933.70
12/09/2013 18:48,1933.70
12/09/2013 18:49,1933.70
12/09/2013 18:50,1933.70
12/09/2013 18:51,1933.70
12/09/2013 18:53,1933.70
12/09/2013 18:54,1933.70
12/09/2013 18:55,1933.70
12/09/2013 18:57,1933.70
12/09/2013 18:58,1933.70
12/09/2013 18:59,1933.70
12/09/2013 19:01,1933.70
12/09/2013 19:02,1933.70
12/09/2013 19:03,1933.70
12/09/2013 19:05,1933.70
12/09/2013 19:06,1933.70
12/09/2013 19:07,1933.70
12/09/2013 19:09,1933.70
12/12/2013 03:17,1934.30
