12/09/2013 18:34,7.8615
12/09/2013 18:35,7.8615
12/09/2013 18:37,7.8615
12/09/2013 18:38,7.8615
12/09/2013 18:39,7.8615
12/09/2013 18:40,7.8615
12/09/2013 18:41,7.8615
12/09/2013 18:43,7.8615
12/09/2013 18:44,7.8615
12/09/2013 18:45,7.8615
12/09/2013 18:46,7.8615
12/09/2013 18:48,7.8615
12/09/2013 18:49,7.8615
12/09/2013 18:50,7.8615
12/09/2013 18:51,7.8615
12/09/2013 18:53,7.8615
12/09/2013 18:54,7.8615
12/09/2013 18:56,7.8615
12/09/2013 18:57,7.8615
12/09/2013 18:58,7.8615
12/09/2013 18:59,7.8615
12/09/2013 19:01,7.8615
12/09/2013 19:02,7.8615
12/09/2013 19:03,7.8615
12/09/2013 19:05,7.8615
12/09/2013 19:06,7.8615
12/09/2013 19:07,7.8615
12/09/2013 19:09,7.8615
12/12/2013 03:17,7.8575
