12/09/2013 18:34,41.3979
12/09/2013 18:35,41.3979
12/09/2013 18:37,41.3979
12/09/2013 18:38,41.3979
12/09/2013 18:39,41.3979
12/09/2013 18:40,41.3979
12/09/2013 18:41,41.3979
12/09/2013 18:43,41.3979
12/09/2013 18:44,41.3979
12/09/2013 18:45,41.3979
12/09/2013 18:47,41.3979
12/09/2013 18:48,41.3979
12/09/2013 18:49,41.3979
12/09/2013 18:50,41.3979
12/09/2013 18:51,41.3979
12/09/2013 18:53,41.3979
12/09/2013 18:54,41.3979
12/09/2013 18:56,41.3979
12/09/2013 18:57,41.3979
12/09/2013 18:58,41.3979
12/09/2013 18:59,41.3979
12/09/2013 19:01,41.3979
12/09/2013 19:02,41.3979
12/09/2013 19:03,41.3979
12/09/2013 19:05,41.3979
12/09/2013 19:06,41.3979
12/09/2013 19:07,41.3979
12/09/2013 19:09,41.3979
12/12/2013 03:17,43.50
