12/09/2013 18:34,0.7074
12/09/2013 18:35,0.7074
12/09/2013 18:37,0.7074
12/09/2013 18:38,0.7074
12/09/2013 18:39,0.7074
12/09/2013 18:40,0.7074
12/09/2013 18:41,0.7074
12/09/2013 18:43,0.7074
12/09/2013 18:44,0.7074
12/09/2013 18:45,0.7074
12/09/2013 18:47,0.7074
12/09/2013 18:48,0.7074
12/09/2013 18:49,0.7074
12/09/2013 18:50,0.7074
12/09/2013 18:52,0.7074
12/09/2013 18:53,0.7074
12/09/2013 18:54,0.7074
12/09/2013 18:56,0.7074
12/09/2013 18:57,0.7074
12/09/2013 18:58,0.7074
12/09/2013 18:59,0.7074
12/09/2013 19:01,0.7074
12/09/2013 19:02,0.7074
12/09/2013 19:03,0.7074
12/09/2013 19:05,0.7074
12/09/2013 19:06,0.7074
12/09/2013 19:07,0.7074
12/09/2013 19:09,0.7074
12/12/2013 03:17,0.7081
