12/09/2013 18:35,1053.41
12/09/2013 18:36,1052.85
12/09/2013 18:37,1053.3051
12/09/2013 18:38,1052.95
12/09/2013 18:40,1053.5551
12/09/2013 18:41,1053.10
12/09/2013 18:42,1053.10
12/09/2013 18:43,1053.5551
12/09/2013 18:44,1053.10
12/09/2013 18:46,1052.90
12/09/2013 18:47,1053.00
12/09/2013 18:48,1053.00
12/09/2013 18:49,1053.5551
12/09/2013 18:51,1053.10
12/09/2013 18:52,1053.05
12/09/2013 18:53,1053.65
12/09/2013 18:55,1053.20
12/09/2013 18:56,1053.00
12/09/2013 18:57,1053.70
12/09/2013 18:59,1053.10
12/09/2013 19:00,1053.655
12/09/2013 19:01,1053.65
12/09/2013 19:03,1053.15
12/09/2013 19:04,1053.15
12/09/2013 19:05,1053.20
12/09/2013 19:07,1053.705
12/09/2013 19:08,1053.05
12/09/2013 19:10,1053.5551
12/12/2013 03:17,1054.10
