12/09/2013 18:34,1.2417
12/09/2013 18:36,1.2417
12/09/2013 18:37,1.2417
12/09/2013 18:38,1.2417
12/09/2013 18:39,1.2417
12/09/2013 18:40,1.2417
12/09/2013 18:42,1.2417
12/09/2013 18:43,1.2417
12/09/2013 18:44,1.2417
12/09/2013 18:45,1.2417
12/09/2013 18:47,1.2417
12/09/2013 18:48,1.2417
12/09/2013 18:49,1.2417
12/09/2013 18:50,1.2417
12/09/2013 18:52,1.2417
12/09/2013 18:53,1.2417
12/09/2013 18:54,1.2417
12/09/2013 18:56,1.2417
12/09/2013 18:57,1.2417
12/09/2013 18:58,1.2417
12/09/2013 19:00,1.2417
12/09/2013 19:01,1.2417
12/09/2013 19:02,1.2417
12/09/2013 19:04,1.2417
12/09/2013 19:05,1.2417
12/09/2013 19:06,1.2417
12/09/2013 19:08,1.2417
12/09/2013 19:09,1.2417
12/12/2013 03:17,1.2373
