12/09/2013 18:34,290.50
12/09/2013 18:36,290.50
12/09/2013 18:37,290.50
12/09/2013 18:38,290.50
12/09/2013 18:39,290.50
12/09/2013 18:40,290.50
12/09/2013 18:42,290.50
12/09/2013 18:43,290.50
12/09/2013 18:44,290.50
12/09/2013 18:45,290.50
12/09/2013 18:47,290.50
12/09/2013 18:48,290.50
12/09/2013 18:49,290.50
12/09/2013 18:50,290.50
12/09/2013 18:52,290.50
12/09/2013 18:53,290.50
12/09/2013 18:54,290.50
12/09/2013 18:56,290.50
12/09/2013 18:57,290.50
12/09/2013 18:58,290.50
12/09/2013 19:00,290.50
12/09/2013 19:01,290.50
12/09/2013 19:02,290.50
12/09/2013 19:04,290.50
12/09/2013 19:05,290.50
12/09/2013 19:06,290.50
12/09/2013 19:08,290.50
12/09/2013 19:09,290.50
12/12/2013 03:17,291.33
