12/09/2013 18:34,30.03
12/09/2013 18:36,30.03
12/09/2013 18:37,30.03
12/09/2013 18:38,30.03
12/09/2013 18:39,30.03
12/09/2013 18:40,30.03
12/09/2013 18:42,30.03
12/09/2013 18:43,30.03
12/09/2013 18:44,30.03
12/09/2013 18:45,30.03
12/09/2013 18:47,30.03
12/09/2013 18:48,30.03
12/09/2013 18:49,30.03
12/09/2013 18:50,30.03
12/09/2013 18:52,30.03
12/09/2013 18:53,30.03
12/09/2013 18:54,30.03
12/09/2013 18:56,30.03
12/09/2013 18:57,30.03
12/09/2013 18:58,30.03
12/09/2013 19:00,30.03
12/09/2013 19:01,30.03
12/09/2013 19:02,30.03
12/09/2013 19:04,30.03
12/09/2013 19:05,30.03
12/09/2013 19:06,30.03
12/09/2013 19:08,30.03
12/09/2013 19:10,30.03
12/12/2013 03:17,29.995
