12/09/2013 18:34,0.385
12/09/2013 18:36,0.385
12/09/2013 18:37,0.385
12/09/2013 18:38,0.385
12/09/2013 18:39,0.385
12/09/2013 18:41,0.385
12/09/2013 18:42,0.385
12/09/2013 18:43,0.385
12/09/2013 18:44,0.385
12/09/2013 18:45,0.385
12/09/2013 18:47,0.385
12/09/2013 18:48,0.385
12/09/2013 18:49,0.385
12/09/2013 18:51,0.385
12/09/2013 18:52,0.385
12/09/2013 18:53,0.385
12/09/2013 18:54,0.385
12/09/2013 18:56,0.385
12/09/2013 18:57,0.385
12/09/2013 18:59,0.385
12/09/2013 19:00,0.385
12/09/2013 19:01,0.385
12/09/2013 19:02,0.385
12/09/2013 19:04,0.385
12/09/2013 19:05,0.385
12/09/2013 19:06,0.385
12/09/2013 19:08,0.385
12/09/2013 19:10,0.385
12/12/2013 03:17,0.385
