12/09/2013 18:35,1.2511
12/09/2013 18:36,1.2509
12/09/2013 18:37,1.2511
12/09/2013 18:38,1.2509
12/09/2013 18:39,1.251
12/09/2013 18:41,1.2508
12/09/2013 18:42,1.2509
12/09/2013 18:43,1.2509
12/09/2013 18:44,1.2509
12/09/2013 18:46,1.2507
12/09/2013 18:47,1.2507
12/09/2013 18:48,1.2507
12/09/2013 18:49,1.2507
12/09/2013 18:51,1.2507
12/09/2013 18:52,1.2507
12/09/2013 18:53,1.2507
12/09/2013 18:55,1.2506
12/09/2013 18:56,1.2507
12/09/2013 18:57,1.2506
12/09/2013 18:59,1.2506
12/09/2013 19:00,1.2506
12/09/2013 19:01,1.2504
12/09/2013 19:03,1.2504
12/09/2013 19:04,1.2504
12/09/2013 19:05,1.2504
12/09/2013 19:07,1.2506
12/09/2013 19:08,1.2506
12/09/2013 19:10,1.2507
12/12/2013 03:17,1.253
