12/09/2013 18:35,2.0245
12/09/2013 18:36,2.0245
12/09/2013 18:37,2.0255
12/09/2013 18:38,2.0249
12/09/2013 18:40,2.0248
12/09/2013 18:41,2.0252
12/09/2013 18:42,2.0245
12/09/2013 18:43,2.0243
12/09/2013 18:44,2.0243
12/09/2013 18:46,2.0247
12/09/2013 18:47,2.0247
12/09/2013 18:48,2.0243
12/09/2013 18:49,2.0243
12/09/2013 18:51,2.0247
12/09/2013 18:52,2.024
12/09/2013 18:53,2.024
12/09/2013 18:55,2.0243
12/09/2013 18:56,2.0243
12/09/2013 18:57,2.0243
12/09/2013 18:59,2.0243
12/09/2013 19:00,2.024
12/09/2013 19:01,2.024
12/09/2013 19:03,2.024
12/09/2013 19:04,2.024
12/09/2013 19:05,2.0252
12/09/2013 19:07,2.0243
12/09/2013 19:08,2.025
12/09/2013 19:10,2.0247
12/12/2013 03:17,2.0429
